Reproducible report: meta-analysis of the effect of fungicides on FHB and DON
…
Select fungicides by number of entries

dat2 %>% 
  ungroup() %>% 
  count(fungicide) %>% 
  arrange(-n) 

# A tibble: 25 × 2
   fungicide                                           n
   <chr>                                           <int>
 1 Carbendazim                                        77
 2 Piraclostrobina + metconazole                      77
 3 Tebuconazole + trifloxistrobina                    77
 4 aacheck                                            77
 5 Clorotalonil + tebuconazole                        76
 6 Piraclostrobina + metconazole + carbendazim        61
 7 Metconazol                                         56
 8 Azoxistrobina + tebuconazole + mancozebe           53
 9 Trifloxistrobina + protioconazole                  53
10 Trifloxistrobina + protioconazole + carbendazim    53
# ℹ 15 more rows
…
design3 = dat_DON %>% 
  group_by(trial2) %>% 
  filter(fungicide  %in% c("aacheck", "Carbendazim", "Metconazol", "Piraclostrobina + metconazole", "Tebuconazole + trifloxistrobina", "Trifloxistrobina + protioconazole", "Trifloxistrobina + protioconazole + bixafem")) %>% 
  mutate(n3 = n()) %>% 
  mutate(design = rep(3, length(fungicide))) %>% 
  filter(n2 == 7) %>% 
  filter(n3 == 7)
design3

# A tibble: 28 × 19
# Groups:   trial2 [4]
   trial2 year_trial fungicide         state mean_don mean_var mean_inc mean_yld
    <int>      <dbl> <chr>             <chr>    <dbl>    <dbl>    <dbl>    <dbl>
 1      9       2019 Carbendazim       RS       4454.  459217.     62.2    4322.
 2      9       2019 Metconazol        RS       1822.  459217.     28.8    4580.
 3      9       2019 Piraclostrobina … RS       1584.  459217.     34.5    4783.
 4      9       2019 Tebuconazole + t… RS       1968.  459217.     41.2    4868.
 5      9       2019 Trifloxistrobina… RS       1589.  459217.     32.2    5101 
 6      9       2019 Trifloxistrobina… RS       2468.  459217.     45.2    4970.
 7      9       2019 aacheck           RS       3505.  459217.     70.5    4224.
 8     10       2019 Carbendazim       PR        216.   36110.     29.5    2431.
 9     10       2019 Metconazol        PR        167.   36110.     32      2252.
10     10       2019 Piraclostrobina … PR        238.   36110.     36.5    2388.
# ℹ 18 more rows
# ℹ 11 more variables: mean_sev <dbl>, v_sev <dbl>, v_yld <dbl>, yi <dbl>,
#   vi <dbl>, n2 <int>, yld_check <dbl>, sev_check <dbl>,
#   sev_check_class <chr>, n3 <int>, design <dbl>
…
design2 = dat_sev %>% 
  group_by(trial2) %>% 
  filter(fungicide  %in% c("aacheck", "Carbendazim", "Metconazol", "Piraclostrobina + metconazole", "Tebuconazole + trifloxistrobina", "Trifloxistrobina + protioconazole", "Trifloxistrobina + protioconazole + bixafem")) %>% 
  mutate(n3 = n()) %>% 
  mutate(design = rep(2, length(fungicide))) %>% 
  filter(n2 == 7) %>%
  filter(n3 == 7)
design2

# A tibble: 28 × 16
# Groups:   trial2 [4]
   trial2 year_trial fungicide         state mean_don mean_var mean_inc mean_yld
    <int>      <dbl> <chr>             <chr>    <dbl>    <dbl>    <dbl>    <dbl>
 1      9       2019 Carbendazim       RS       4454.  459217.     62.2    4322.
 2      9       2019 Metconazol        RS       1822.  459217.     28.8    4580.
 3      9       2019 Piraclostrobina … RS       1584.  459217.     34.5    4783.
 4      9       2019 Tebuconazole + t… RS       1968.  459217.     41.2    4868.
 5      9       2019 Trifloxistrobina… RS       1589.  459217.     32.2    5101 
 6      9       2019 Trifloxistrobina… RS       2468.  459217.     45.2    4970.
 7      9       2019 aacheck           RS       3505.  459217.     70.5    4224.
 8     11       2019 Carbendazim       RS        712.   47199.     22.4    4218.
 9     11       2019 Metconazol        RS        309.   47199.     17.9    4836.
10     11       2019 Piraclostrobina … RS        459.   47199.     13.3      NA 
# ℹ 18 more rows
# ℹ 8 more variables: mean_sev <dbl>, v_sev <dbl>, v_yld <dbl>, log_sev <dbl>,
#   vi_sev <dbl>, n2 <int>, n3 <int>, design <dbl>
…
design2 = dat_yld %>% 
  group_by(trial2) %>% 
  filter(fungicide  %in% c("aacheck", "Carbendazim", "Metconazol", "Piraclostrobina + metconazole", "Tebuconazole + trifloxistrobina", "Trifloxistrobina + protioconazole + bixafem")) %>% 
  mutate(n3 = n()) %>% 
  mutate(design = rep(2, length(fungicide))) %>% 
  filter(n2 == 6) %>%
  filter(n3 == 6)
design2

# A tibble: 36 × 18
# Groups:   trial2 [6]
   trial2 year_trial fungicide         state mean_don mean_var mean_inc mean_yld
    <int>      <dbl> <chr>             <chr>    <dbl>    <dbl>    <dbl>    <dbl>
 1     14       2020 Carbendazim       RS        NA      1131.   NA          NA 
 2     14       2020 Metconazol        RS        NA      1131.   NA          NA 
 3     14       2020 Piraclostrobina … RS         0      1131.   NA        3443.
 4     14       2020 Tebuconazole + t… RS         0      1131.   NA        3463.
 5     14       2020 Trifloxistrobina… RS        33.6    1131.   NA        3528.
 6     14       2020 aacheck           RS         0      1131.   NA        3391.
 7     15       2020 Carbendazim       RS         0      4069.    0        4308.
 8     15       2020 Metconazol        RS        78.1    4069.    0.45     4360.
 9     15       2020 Piraclostrobina … RS         0      4069.    0.25     4026.
10     15       2020 Tebuconazole + t… RS         0      4069.    0.975    4351.
# ℹ 26 more rows
# ℹ 10 more variables: mean_sev <dbl>, v_sev <dbl>, v_yld <dbl>, v_yld1 <dbl>,
#   n2 <int>, yld_check <dbl>, sev_check <dbl>, sev_check_class <chr>,
#   n3 <int>, design <dbl>

design3 = dat_yld %>% 
  group_by(trial2) %>% 
  filter(fungicide  %in% c("aacheck", "Carbendazim", "Metconazol", "Piraclostrobina + metconazole", "Tebuconazole + trifloxistrobina", "Trifloxistrobina + protioconazole", "Trifloxistrobina + protioconazole + bixafem")) %>% 
  mutate(n3 = n()) %>% 
  mutate(design = rep(3, length(fungicide))) %>% 
  filter(n2 == 7) %>% 
  filter(n3 == 7)
design3

# A tibble: 49 × 18
# Groups:   trial2 [7]
   trial2 year_trial fungicide         state mean_don mean_var mean_inc mean_yld
    <int>      <dbl> <chr>             <chr>    <dbl>    <dbl>    <dbl>    <dbl>
 1      7       2018 Carbendazim       RS       2202.   55366.     74.2    5088.
 2      7       2018 Metconazol        RS       1313.   55366.     71.8    5365.
 3      7       2018 Piraclostrobina … RS         NA    55366.     NA        NA 
 4      7       2018 Tebuconazole + t… RS         NA    55366.     NA        NA 
 5      7       2018 Trifloxistrobina… RS       1874.   55366.     71.2    5417.
 6      7       2018 Trifloxistrobina… RS       2196.   55366.     79.6    5548.
 7      7       2018 aacheck           RS         NA    55366.     NA        NA 
 8      8       2018 Carbendazim       RS          0        0       0      3220.
 9      8       2018 Metconazol        RS          0        0       0      3533.
10      8       2018 Piraclostrobina … RS          0        0       0      3947.
# ℹ 39 more rows
# ℹ 10 more variables: mean_sev <dbl>, v_sev <dbl>, v_yld <dbl>, v_yld1 <dbl>,
#   n2 <int>, yld_check <dbl>, sev_check <dbl>, sev_check_class <chr>,
#   n3 <int>, design <dbl>

design4 = dat_yld %>% 
  group_by(trial2) %>% 
  filter(fungicide  %in% c("aacheck", "Carbendazim", "Piraclostrobina + metconazole", "Tebuconazole + trifloxistrobina", "Trifloxistrobina + protioconazole")) %>% 
  mutate(n3 = n()) %>% 
  mutate(design = rep(4, length(fungicide))) %>% 
  filter(n2 == 5) %>% 
  filter(n3 == 5)
design4

# A tibble: 25 × 18
# Groups:   trial2 [5]
   trial2 year_trial fungicide         state mean_don mean_var mean_inc mean_yld
    <int>      <dbl> <chr>             <chr>    <dbl>    <dbl>    <dbl>    <dbl>
 1      1       2017 Carbendazim       PR       3402. 1014032.     15.8    3604.
 2      1       2017 Piraclostrobina … PR       2282. 1014032.     10.8    3472.
 3      1       2017 Tebuconazole + t… PR       1787. 1014032.      8.5    3619.
 4      1       2017 Trifloxistrobina… PR       2294. 1014032.      6.5    3650.
 5      1       2017 aacheck           PR       4974. 1014032.     52.4    3359.
 6      2       2017 Carbendazim       RS       1178.   71374.     71.2    3740.
 7      2       2017 Piraclostrobina … RS        574.   71374.     NA      3977.
 8      2       2017 Tebuconazole + t… RS        769.   71374.     67.6    3922.
 9      2       2017 Trifloxistrobina… RS       1050.   71374.     65.4    4111.
10      2       2017 aacheck           RS       1924    71374.     76.6    3621.
# ℹ 15 more rows
# ℹ 10 more variables: mean_sev <dbl>, v_sev <dbl>, v_yld <dbl>, v_yld1 <dbl>,
#   n2 <int>, yld_check <dbl>, sev_check <dbl>, sev_check_class <chr>,
#   n3 <int>, design <dbl>
…
